fr\comore\paramen\practice\ladders\Ladder.class
fr\comore\paramen\practice\commands\PINGCommand.class
fr\comore\paramen\practice\listeners\JoinListener.class
fr\comore\paramen\practice\commands\ELOCommand.class
fr\comore\paramen\practice\listeners\BuildEvent.class
fr\comore\paramen\practice\mysql\MySQL.class
fr\comore\paramen\practice\runnable\MessageRunnable.class
fr\comore\paramen\practice\commands\SPECCommand.class
fr\comore\paramen\practice\DuelManager.class
fr\comore\paramen\practice\listeners\InteractListener.class
fr\comore\paramen\practice\inventory\InventoryManager.class
fr\comore\paramen\practice\player\PracticePlayer.class
fr\comore\paramen\practice\ladders\Debuff.class
fr\comore\paramen\practice\scoreboard\ScoreboardHelper.class
fr\comore\paramen\practice\scoreboard\ScoreboardManager.class
fr\comore\paramen\practice\commands\REPORTCommand.class
fr\comore\paramen\practice\commands\STAFFCommand.class
fr\comore\paramen\practice\commands\sub\PartyDisbandSubCommand.class
fr\comore\paramen\practice\listeners\PearlEvent.class
fr\comore\paramen\practice\listeners\InteractListener$1.class
fr\comore\paramen\practice\spectator\SpectatorManager.class
fr\comore\paramen\practice\matchs\MatchManager.class
fr\comore\paramen\practice\SettingsManager$SettingsList.class
fr\comore\paramen\practice\listeners\WeatherStopChange.class
fr\comore\paramen\practice\queue\QueueManager.class
fr\comore\paramen\practice\SettingsManager.class
fr\comore\paramen\practice\ParaPractice.class
fr\comore\paramen\practice\commands\sub\PartyCreateSubCommand.class
fr\comore\paramen\practice\commands\DUELCommand.class
fr\comore\paramen\practice\scoreboard\NameTagChanger.class
fr\comore\paramen\practice\commands\INVCommand.class
fr\comore\paramen\practice\kits\InventoryStringDeSerializer.class
fr\comore\paramen\practice\arena\Arena.class
fr\comore\paramen\practice\commands\SETTINGSCommand.class
fr\comore\paramen\practice\ladders\Axe.class
fr\comore\paramen\practice\ladders\NoDebuff.class
fr\comore\paramen\practice\kits\KitManager.class
fr\comore\paramen\practice\commands\sub\PartyLeaveSubCommand.class
fr\comore\paramen\practice\commands\sub\PartyJoinSubCommand.class
fr\comore\paramen\practice\pearlmanager\PearlManager.class
fr\comore\paramen\practice\ladders\Sumo.class
fr\comore\paramen\practice\ladders\LadderType.class
fr\comore\paramen\practice\scoreboard\ScoreboardHelper$ScoreboardText.class
fr\comore\paramen\practice\listeners\KillEvent.class
fr\comore\paramen\practice\party\PartyManager.class
fr\comore\paramen\practice\commands\sub\PartySubCommand.class
fr\comore\paramen\practice\commands\BUILDCommand.class
fr\comore\paramen\practice\commands\sub\SubCommand.class
fr\comore\paramen\practice\kits\KitEditor.class
fr\comore\paramen\practice\ladders\Archer.class
fr\comore\paramen\practice\commands\PartyCommand.class
fr\comore\paramen\practice\commands\ACCEPTCommand.class
fr\comore\paramen\practice\commands\GameModeCommand.class
fr\comore\paramen\practice\utils\ItemBuilder.class
fr\comore\paramen\practice\commands\RankCommand.class
fr\comore\paramen\practice\elos\ELOManager.class
